module gitlab.com/gitlab-org/opstrace/opstrace/test/sentry-sdk/testdata/supported-sdk-clients

go 1.21

require github.com/getsentry/sentry-go v0.20.0

require (
	golang.org/x/sys v0.6.0 // indirect
	golang.org/x/text v0.8.0 // indirect
)
